…
- The numbers have been declining between 1977 and 2002

```r
deserts %>% 
  filter(species == "merriami") %>% 
  count(year)
```

```
## # A tibble: 26 × 2
##     year     n
##    <dbl> <int>
##  1  1977   264
##  2  1978   389
##  3  1979   209
##  4  1980   493
##  5  1981   559
##  6  1982   609
##  7  1983   528
##  8  1984   396
##  9  1985   667
## 10  1986   406
## # … with 16 more rows
```
…
