…
```
## [1] TRUE
```
2. Use `janitor` to rename the columns and make them easier to use. As part of this cleaning step, change `country`, `isscaap_group_number`, `asfis_species_number`, and `fao_major_fishing_area` to data class factor. 

```r
fisheries <- clean_names(fisheries)
fisheries
```

```
## # A tibble: 17,692 × 71
##    country common_…¹ issca…² issca…³ asfis…⁴ asfis…⁵ fao_m…⁶ measure x1950 x1951
##    <chr>   <chr>       <dbl> <chr>   <chr>   <chr>     <dbl> <chr>   <chr> <chr>
##  1 Albania Angelsha…      38 Sharks… 10903X… Squati…      37 Quanti… <NA>  <NA> 
##  2 Albania Atlantic…      36 Tunas,… 175010… Sarda …      37 Quanti… <NA>  <NA> 
##  3 Albania Barracud…      37 Miscel… 177100… Sphyra…      37 Quanti… <NA>  <NA> 
##  4 Albania Blue and…      45 Shrimp… 228020… Ariste…      37 Quanti… <NA>  <NA> 
##  5 Albania Blue whi…      32 Cods, … 148040… Microm…      37 Quanti… <NA>  <NA> 
##  6 Albania Bluefish       37 Miscel… 170202… Pomato…      37 Quanti… <NA>  <NA> 
##  7 Albania Bogue          33 Miscel… 170392… Boops …      37 Quanti… <NA>  <NA> 
##  8 Albania Caramote…      45 Shrimp… 228010… Penaeu…      37 Quanti… <NA>  <NA> 
##  9 Albania Catshark…      38 Sharks… 108010… Scylio…      37 Quanti… <NA>  <NA> 
## 10 Albania Common c…      57 Squids… 321020… Sepia …      37 Quanti… <NA>  <NA> 
## # … with 17,682 more rows, 61 more variables: x1952 <chr>, x1953 <chr>,
## #   x1954 <chr>, x1955 <chr>, x1956 <chr>, x1957 <chr>, x1958 <chr>,
## #   x1959 <chr>, x1960 <chr>, x1961 <chr>, x1962 <chr>, x1963 <chr>,
## #   x1964 <chr>, x1965 <chr>, x1966 <chr>, x1967 <chr>, x1968 <chr>,
## #   x1969 <chr>, x1970 <chr>, x1971 <chr>, x1972 <chr>, x1973 <chr>,
## #   x1974 <chr>, x1975 <chr>, x1976 <chr>, x1977 <chr>, x1978 <chr>,
## #   x1979 <chr>, x1980 <chr>, x1981 <chr>, x1982 <chr>, x1983 <chr>, …
```
…
```
## [1] 203
```

4. Refocus the data only to include country, isscaap_taxonomic_group, asfis_species_name, asfis_species_number, year, catch.

```r
fisheries_selected <- fisheries_tidy %>% 
  select("country", "isscaap_taxonomic_group", "asfis_species_name", "asfis_species_number", "year", "catch")
fisheries_selected
```

```
## # A tibble: 376,771 × 6
##    country isscaap_taxonomic_group asfis_species_name asfis_specie…¹  year catch
##    <fct>   <chr>                   <chr>              <fct>          <dbl> <dbl>
##  1 Albania Sharks, rays, chimaeras Squatinidae        10903XXXXX      1995    NA
##  2 Albania Sharks, rays, chimaeras Squatinidae        10903XXXXX      1996    53
##  3 Albania Sharks, rays, chimaeras Squatinidae        10903XXXXX      1997    20
##  4 Albania Sharks, rays, chimaeras Squatinidae        10903XXXXX      1998    31
##  5 Albania Sharks, rays, chimaeras Squatinidae        10903XXXXX      1999    30
##  6 Albania Sharks, rays, chimaeras Squatinidae        10903XXXXX      2000    30
##  7 Albania Sharks, rays, chimaeras Squatinidae        10903XXXXX      2001    16
##  8 Albania Sharks, rays, chimaeras Squatinidae        10903XXXXX      2002    79
##  9 Albania Sharks, rays, chimaeras Squatinidae        10903XXXXX      2003     1
## 10 Albania Sharks, rays, chimaeras Squatinidae        10903XXXXX      2004     4
## # … with 376,761 more rows, and abbreviated variable name ¹​asfis_species_number
```
…
- China had the largest overall catch 

```r
fisheries_selected %>% 
  filter(year == 2000) %>% 
  select("country", "catch") %>% 
  arrange(desc(catch))
```

```
## # A tibble: 8,793 × 2
##    country                  catch
##    <fct>                    <dbl>
##  1 China                     9068
##  2 Peru                      5717
##  3 Russian Federation        5065
##  4 Viet Nam                  4945
##  5 Chile                     4299
##  6 China                     3288
##  7 China                     2782
##  8 United States of America  2438
##  9 China                     1234
## 10 Philippines                999
## # … with 8,783 more rows
```
7. Which country caught the most sardines (_Sardina pilchardus_) between the years 1990-2000?

- Morocco

```r
fisheries_selected %>% 
  filter(asfis_species_name == "Sardina pilchardus") %>% 
  filter(between(year, 1990, 2000)) %>% 
  group_by(country) %>% 
  summarise(sum = sum(catch, na.rm = T)) %>% 
  arrange(desc(sum))
```

```
## # A tibble: 37 × 2
##    country                 sum
##    <fct>                 <dbl>
##  1 Morocco                7470
##  2 Spain                  3507
##  3 Russian Federation     1639
##  4 Ukraine                1030
##  5 France                  966
##  6 Portugal                818
##  7 Greece                  528
##  8 Italy                   507
##  9 Serbia and Montenegro   478
## 10 Denmark                 477
## # … with 27 more rows
```
…
9. Which species had the highest catch total between 2008-2012? (hint: Osteichthyes is not a species)

- Theragra chalcogramma

```r
fisheries_selected %>% 
  filter(between(year, 2008, 2012)) %>% 
  group_by(asfis_species_name) %>% 
  summarise(sum=sum(catch, na.rm = T)) %>% 
  arrange(desc(sum))
```

```
## # A tibble: 1,472 × 2
##    asfis_species_name       sum
##    <chr>                  <dbl>
##  1 Osteichthyes          107808
##  2 Theragra chalcogramma  41075
##  3 Engraulis ringens      35523
##  4 Katsuwonus pelamis     32153
##  5 Trichiurus lepturus    30400
##  6 Clupea harengus        28527
##  7 Thunnus albacares      20119
##  8 Scomber japonicus      14723
##  9 Gadus morhua           13253
## 10 Thunnus alalunga       12019
## # … with 1,462 more rows
```
…
- Which year were the most total fish caught, no considering individual species
- 2007, where 268130 fish were caught in total


```r
fisheries_tidy %>% 
  select("year", "catch") %>% 
  group_by(year) %>% 
  summarise(total_fish = sum(catch, na.rm = T)) %>% 
  arrange(desc(total_fish))
```

```
## # A tibble: 63 × 2
##     year total_fish
##    <dbl>      <dbl>
##  1  2007     268130
##  2  2006     257669
##  3  2001     257320
##  4  2002     255807
##  5  2012     255406
##  6  2008     255013
##  7  2004     254115
##  8  2005     251877
##  9  2009     251181
## 10  2010     244839
## # … with 53 more rows
```
…
